﻿{
  "version": "1.0.0",

  "dependencies": {
    "BR.Adapter.Abstractions": "",
    "LendFoundry.Configuration.Client": "1.0.7-11095",
    "LendFoundry.EventHub.Abstractions": "2.0.0-11040",
    "LendFoundry.Foundation.Date": "1.0.3-11098",
    "LendFoundry.Foundation.Logging": "1.0.9-11092",
    "LendFoundry.Foundation.Services": "1.0.11-11251",
    "LendFoundry.Tenant.Abstractions": "1.0.1-11138",
    "LendFoundry.Tenant.Client": "1.0.9-11138",
    "LendFoundry.Security.Tokens": "1.0.8-11172",
    "LendFoundry.NumberGenerator.Abstractions": "1.0.0-*",
    "LendFoundry.NumberGenerator.Client": "1.0.0-*",
    "LendFoundry.Foundation.Lookup.Abstractions": "1.0.0-*",
    "LendFoundry.Foundation.Lookup.Client": "1.0.0-*",
    "LendFoundry.DataAttributes.Abstractions": "1.1.0-*",
    "LendFoundry.DataAttributes.Client": "1.1.0-*",
    "CreditExchange.StatusManagement.Abstractions": "1.0.0-mp-*",
    "CreditExchange.StatusManagement.Client": "1.0.0-mp-*",
    "LMS.LoanAccounting.Abstractions": "1.0.0-*",
    "LMS.LoanAccounting.Client": "1.0.0-*",
    "LendFoundry.Foundation.Persistence": "1.0.1-11051",
    "LMS.LoanManagement.Abstractions": "1.0.1-*",
    "LMS.LoanManagement.Client": "1.0.1-*",
    "LMS.Loan.Filters.Abstractions": "1.0.0-*",
    "LMS.Loan.Filters.Client": "1.0.0-*",
    "SSH.NET": "2014.4.6-beta2",

    "Microsoft.Framework.DependencyInjection.Abstractions": "1.0.0-beta8",
    "CsvHelper": "2.16.3"
  },
  "frameworks": {
    "dnx451": {}
  }
}
