﻿{
  "version": "1.0.0",

  "dependencies": {
    "LendFoundry.Tenant.Abstractions": "1.0.1-11004",
    "LendFoundry.Tenant.Client": "1.0.9-*",
    "BR.Adapter.Abstractions": "",
    "LendFoundry.Foundation.Logging": "1.0.9-11092",
    "LendFoundry.Foundation.Services": "1.0.11-11251",
    "LendFoundry.Foundation.Persistence": "1.0.1-11051",
    "LendFoundry.Foundation.Persistence.Mongo": "1.0.1-11045",
    "LendFoundry.Security.Tokens": "1.0.8-11172",
    "MongoDB.Driver": "2.2.0",
    "Microsoft.Framework.DependencyInjection.Abstractions": "1.0.0-beta8"
  },

  "frameworks": {
    "dnx451": {}
  }
}
