{
  "profiles": {
    "kestrel": {
      "commandName": "kestrel",
      "environmentVariables": {
        "LOG_FORMAT": "plain",
        "ASPNET_ENV": "Development",
        "BR-Adapter_CONFIGURATION_HOST": "52.0.189.63",
        "BR-Adapter_CONFIGURATION_PORT": "7001",
        "BR-Adapter_TENANT_HOST": "52.0.189.63",
        "BR-Adapter_TENANT_PORT": "7003",
        "BR-Adapter_EVENTHUB_HOST": "52.0.189.63",
        "BR-Adapter_EVENTHUB_PORT": "7002",
        "BR-Adapter_NUMBER-GENERATOR_HOST": "52.0.189.63",
        "BR-Adapter_NUMBER-GENERATOR_PORT": "7008",
        "BR-Adapter_STATUS-MANAGEMENT_HOST": "52.0.189.63",
        "BR-Adapter_STATUS-MANAGEMENT_PORT": "7021",
        "BR-Adapter_PRODUCT_HOST": "52.0.189.63",
        "BR-Adapter_PRODUCT_PORT": "7053",
        "BR-Adapter_LOAN-ACCOUNTING_HOST": "52.0.189.63",
        "BR-Adapter_LOAN-ACCOUNTING_PORT": "7093",
        "BR-Adapter_LOAN-MANAGEMENT_HOST": "52.0.189.63",
        "BR-Adapter_LOAN-MANAGEMENT_PORT": "7092",
        "BR-Adapter_LOAN-FILTERS_HOST": "52.0.189.63",
        "BR-Adapter_LOAN-FILTERS_PORT": "7094",
        "BR-Adapter_LOOKUP-SERVICE_HOST": "52.0.189.63",
        "BR-Adapter_LOOKUP-SERVICE_PORT": "7005",
        "BR-Adapter_DATA-ATTRIBUTES_HOST": "52.0.189.63",
        "BR-Adapter_DATA-ATTRIBUTES_PORT": "7012",
        "BR-Adapter_MONGO_CONNECTION": "mongodb://multi:ezirSZcslv@52.0.189.63:27017/admin",
        "BR-Adapter_NATS_URL": "52.0.189.63:4222",
        "BR-Adapter_PRODUCT-RULE_HOST": "52.0.189.63",
        "BR-Adapter_PRODUCT-RULE_PORT": "7042",
        "BR-Adapter_DECISION-ENGINE_HOST": "52.0.189.63",
        "BR-Adapter_DECISION-ENGINE_PORT": "7011",
        "BR-Adapter_CALENDAR_HOST": "52.0.189.63",
        "BR-Adapter_CALENDAR_PORT": "7069"
      }
    }
  }
}